%YAML 1.1
%TAG !u! tag:unity3d.com,2011:
--- !u!74 &7400000
AnimationClip:
  m_ObjectHideFlags: 0
  m_CorrespondingSourceObject: {fileID: 0}
  m_PrefabInstance: {fileID: 0}
  m_PrefabAsset: {fileID: 0}
  m_Name: New Animation
  serializedVersion: 6
  m_Legacy: 0
  m_Compressed: 0
  m_UseHighQualityCurve: 1
  m_RotationCurves: []
  m_CompressedRotationCurves: []
  m_EulerCurves: []
  m_PositionCurves: []
  m_ScaleCurves: []
  m_FloatCurves: []
  m_PPtrCurves:
  - curve:
    - time: 0
      value: {fileID: 21300000, guid: 245ff09f6b00fcb4d80df5b9beb95957, type: 3}
    - time: 0.083333336
      value: {fileID: 21300000, guid: 0f24abd06ace2314ea71661453eed682, type: 3}
    - time: 0.16666667
      value: {fileID: 21300000, guid: 1514aaf9eca50f844a27f944a9c04a18, type: 3}
    - time: 0.25
      value: {fileID: 21300000, guid: f8d514cb6bdcc154985a19e50caa65c9, type: 3}
    - time: 0.33333334
      value: {fileID: 21300000, guid: 8429d7f3db420a64ba982b727f4371f9, type: 3}
    - time: 0.41666666
      value: {fileID: 21300000, guid: 2e9d8d5040df5924eb0ae861adaa4eda, type: 3}
    - time: 0.5
      value: {fileID: 21300000, guid: 6afbcc717ea7fa247bd2dbd76e636273, type: 3}
    - time: 0.5833333
      value: {fileID: 21300000, guid: c95f0046ef195cc468dcfafcb1bff4e4, type: 3}
    - time: 0.6666667
      value: {fileID: 21300000, guid: 13b2357e5ceb6464092b5e483a20ae8f, type: 3}
    - time: 0.75
      value: {fileID: 21300000, guid: 6d4ec3ea57567344b8b46b180606c412, type: 3}
    - time: 0.8333333
      value: {fileID: 21300000, guid: c4b76d5ca2350304f98c2297e8c6cded, type: 3}
    - time: 0.9166667
      value: {fileID: 21300000, guid: af0b8e1c9b1e1cb439229a7249b64a1b, type: 3}
    attribute: m_Sprite
    path: 
    classID: 212
    script: {fileID: 0}
  m_SampleRate: 12
  m_WrapMode: 0
  m_Bounds:
    m_Center: {x: 0, y: 0, z: 0}
    m_Extent: {x: 0, y: 0, z: 0}
  m_ClipBindingConstant:
    genericBindings:
    - serializedVersion: 2
      path: 0
      attribute: 0
      script: {fileID: 0}
      typeID: 212
      customType: 23
      isPPtrCurve: 1
    pptrCurveMapping:
    - {fileID: 21300000, guid: 245ff09f6b00fcb4d80df5b9beb95957, type: 3}
    - {fileID: 21300000, guid: 0f24abd06ace2314ea71661453eed682, type: 3}
    - {fileID: 21300000, guid: 1514aaf9eca50f844a27f944a9c04a18, type: 3}
    - {fileID: 21300000, guid: f8d514cb6bdcc154985a19e50caa65c9, type: 3}
    - {fileID: 21300000, guid: 8429d7f3db420a64ba982b727f4371f9, type: 3}
    - {fileID: 21300000, guid: 2e9d8d5040df5924eb0ae861adaa4eda, type: 3}
    - {fileID: 21300000, guid: 6afbcc717ea7fa247bd2dbd76e636273, type: 3}
    - {fileID: 21300000, guid: c95f0046ef195cc468dcfafcb1bff4e4, type: 3}
    - {fileID: 21300000, guid: 13b2357e5ceb6464092b5e483a20ae8f, type: 3}
    - {fileID: 21300000, guid: 6d4ec3ea57567344b8b46b180606c412, type: 3}
    - {fileID: 21300000, guid: c4b76d5ca2350304f98c2297e8c6cded, type: 3}
    - {fileID: 21300000, guid: af0b8e1c9b1e1cb439229a7249b64a1b, type: 3}
  m_AnimationClipSettings:
    serializedVersion: 2
    m_AdditiveReferencePoseClip: {fileID: 0}
    m_AdditiveReferencePoseTime: 0
    m_StartTime: 0
    m_StopTime: 1
    m_OrientationOffsetY: 0
    m_Level: 0
    m_CycleOffset: 0
    m_HasAdditiveReferencePose: 0
    m_LoopTime: 1
    m_LoopBlend: 0
    m_LoopBlendOrientation: 0
    m_LoopBlendPositionY: 0
    m_LoopBlendPositionXZ: 0
    m_KeepOriginalOrientation: 0
    m_KeepOriginalPositionY: 1
    m_KeepOriginalPositionXZ: 0
    m_HeightFromFeet: 0
    m_Mirror: 0
  m_EditorCurves: []
  m_EulerEditorCurves: []
  m_HasGenericRootTransform: 0
  m_HasMotionFloatCurves: 0
  m_Events: []
