%YAML 1.1
%TAG !u! tag:unity3d.com,2011:
--- !u!1045 &1
EditorBuildSettings:
  m_ObjectHideFlags: 0
  serializedVersion: 2
  m_Scenes:
  - enabled: 1
    path: Assets/Scenes/Main Menu.unity
    guid: 8c9c0bea8cc985d4fb2bfd913dfb849a
  - enabled: 1
    path: Assets/Scenes/credits.unity
    guid: 79c6b1375e5007f41b1d08da6f63c34c
  - enabled: 1
    path: Assets/Scenes/level 1.unity
    guid: df3c0c6d4bf371b46af3dea7becf47b3
  m_configObjects: {}
