%YAML 1.1
%TAG !u! tag:unity3d.com,2011:
--- !u!114 &11400000
MonoBehaviour:
  m_ObjectHideFlags: 0
  m_CorrespondingSourceObject: {fileID: 0}
  m_PrefabInstance: {fileID: 0}
  m_PrefabAsset: {fileID: 0}
  m_GameObject: {fileID: 0}
  m_Enabled: 1
  m_EditorHideFlags: 0
  m_Script: {fileID: 11500000, guid: ee84a446acd70f94c945e4f516a35de9, type: 3}
  m_Name: Boss_BaseData
  m_EditorClassIdentifier: 
  maxHealth: 80
  damageHopSpeed: 3
  wallCheckDistance: 0.2
  ledgeCheckDistance: 0.4
  MinAgroDistance: 8
  MaxAgroDistance: 10
  closeRangeActionDistance: 1
  whatisGround:
    serializedVersion: 2
    m_Bits: 8192
  whatisPlayer:
    serializedVersion: 2
    m_Bits: 4096
